Project 1: Exploratory Data Analysis
…
## Warning: Column `Area`/`State` joining character vector and factor, coercing
## into character vector

#Need to convert StateTotal CO2 emissions variable into numeric variable
data_final$StateTotal <- as.numeric(as.character(data_final$StateTotal))

3. Wrangling (40 pts)

#Table displaying the states and stats for states whose lung cancer rates are above the national average
data_final %>% filter(AgeAdjustedRate>mean(AgeAdjustedRate))%>%#States whose lung cancer rates are above the national mean
  arrange(desc(AgeAdjustedRate)) #Arranging filtered cancer rates, descending

## # A tibble: 26 x 10
##    Area  CancerType  Year Sex   CaseCount Population Region AgeAdjustedRate
##    <chr> <fct>      <int> <fct>     <int>      <int> <chr>            <dbl>
##  1 Kent… Lung and …  2016 Male…      4761    4436113 South             86.8
##  2 Arka… Lung and …  2016 Male…      2884    2988231 South             76.5
##  3 West… Lung and …  2016 Male…      1993    1828637 North…            75.4
##  4 Miss… Lung and …  2016 Male…      2684    2985415 South             75  
##  5 Maine Lung and …  2016 Male…      1453    1330232 North…            73.5
##  6 Tenn… Lung and …  2016 Male…      5900    6649404 South             70.9
##  7 Indi… Lung and …  2016 Male…      5567    6634007 Midwe…            70.4
##  8 Rhod… Lung and …  2016 Male…       937    1057566 North…            68.5
##  9 Miss… Lung and …  2016 Male…      5256    6091176 Midwe…            68  
## 10 Dela… Lung and …  2016 Male…       862     952698 North…            67.1
## # … with 16 more rows, and 2 more variables: Percapita <dbl>, StateTotal <dbl>
…
